Assignment 1
…
Bell_pepper_data <- read_csv("bellpepper.csv")

Rows: 30 Columns: 2
── Column specification ────────────────────────────────────────────────────────
Delimiter: ","
chr (1): field
dbl (1): water

ℹ Use `spec()` to retrieve the full column specification for this data.
ℹ Specify the column types or set `show_col_types = FALSE` to quiet this message.

Bell_pepper_data

# A tibble: 30 × 2
   field water
   <chr> <dbl>
 1 a      10.2
 2 a      10.7
 3 a      15.5
 4 a      10.4
 5 a       9.9
 6 a      10  
 7 a      16.6
 8 a      15.1
 9 a      15.2
10 a      13.8
# ℹ 20 more rows
…
